{
    "prepare_queue": {
        "installed": [],
        "uninstalled": []
    },
    "config_munge": {
        "files": {}
    },
    "installed_plugins": {
        "com.ionic.keyboard": {
            "PACKAGE_NAME": "com.ionicframework.leanbh234254"
        },
        "cordova-plugin-bluetooth-serial": {
            "PACKAGE_NAME": "com.ionicframework.leanbh234254"
        },
        "cordova-plugin-device": {
            "PACKAGE_NAME": "com.ionicframework.leanbh234254"
        },
        "cordova-plugin-file": {
            "PACKAGE_NAME": "com.ionicframework.leanbh234254"
        },
        "cordova-plugin-whitelist": {
            "PACKAGE_NAME": "com.ionicframework.leanbh234254"
        },
        "cordova-plugin-bluetoothle": {
            "PACKAGE_NAME": "com.ionicframework.leanbh234254"
        },
        "cordova-plugin-network-information": {
            "PACKAGE_NAME": "com.ionicframework.leanbh234254"
        },
        "cordova-plugin-splashscreen": {
            "PACKAGE_NAME": "com.ionicframework.leanbh234254"
        },
        "cordova-plugin-http": {
            "PACKAGE_NAME": "com.ionicframework.leanbh234254"
        },
        "cordova-plugin-console": {
            "PACKAGE_NAME": "com.ionicframework.leanbh234254"
        },
        "io.litehelpers.cordova.sqlcipher": {
            "PACKAGE_NAME": "com.ionicframework.leanbh234254"
        },
        "cordova-plugin-app-version": {
            "PACKAGE_NAME": "com.ionicframework.leanbh234254"
        },
        "com.joandilee.imeiplugin": {
            "PACKAGE_NAME": "com.ionicframework.leanbh234254"
        }
    },
    "dependent_plugins": {}
}