{
    "prepare_queue": {
        "installed": [],
        "uninstalled": []
    },
    "config_munge": {
        "files": {}
    },
    "installed_plugins": {
        "com.ionic.keyboard": {
            "PACKAGE_NAME": "Leanbh"
        },
        "cordova-plugin-ble-central": {
            "PACKAGE_NAME": "Leanbh"
        },
        "cordova-plugin-bluetoothle": {
            "PACKAGE_NAME": "Leanbh"
        },
        "cordova-plugin-console": {
            "PACKAGE_NAME": "Leanbh"
        },
        "cordova-plugin-device": {
            "PACKAGE_NAME": "Leanbh"
        },
        "cordova-plugin-splashscreen": {
            "PACKAGE_NAME": "Leanbh"
        },
        "cordova-plugin-whitelist": {
            "PACKAGE_NAME": "Leanbh"
        },
        "cordova-sqlite-storage": {
            "PACKAGE_NAME": "Leanbh"
        },
        "me.rahul.plugins.sqlDB": {
            "PACKAGE_NAME": "Leanbh"
        },
        "cordova-plugin-bluetooth-serial": {
            "PACKAGE_NAME": "Leanbh"
        },
        "cordova-plugin-network-information": {
            "PACKAGE_NAME": "Leanbh"
        },
        "cordova-plugin-http": {
            "PACKAGE_NAME": "Leanbh"
        }
    },
    "dependent_plugins": {
        "cordova-plugin-file": {
            "PACKAGE_NAME": "Leanbh"
        }
    }
}